<?xml version="1.0" encoding="UTF-8"?>
<svg viewBox="0 0 362 486" version="1.1" xmlns="http://www.w3.org/2000/svg" xmlns:xlink="http://www.w3.org/1999/xlink">
    <!-- Generator: Sketch 51.3 (57544) - http://www.bohemiancoding.com/sketch -->
    <title>Group 35</title>
    <desc>Created with Sketch.</desc>
    <defs></defs>
    <g id="homepage---GitLab-Live" stroke="none" stroke-width="1" fill="none" fill-rule="evenodd">
        <g id="homepage-gitlab-live" transform="translate(-238.000000, -132.000000)">
            <g id="Group-35" transform="translate(241.000000, 135.000000)">
                <g id="Group-34" transform="translate(0.000000, 0.175522)">
                    <path d="M269.609552,252.117313 L259.254627,220.304776 L238.771343,157.204478 C237.721791,153.977015 233.144776,153.977015 232.056716,157.204478 L211.573433,220.267164 L143.520896,220.267164 L123.037612,157.204478 C121.987164,153.977015 117.410149,153.977015 116.32209,157.204478 L95.8764179,220.267164 L85.5223881,252.117313 C84.5847761,255.006269 85.5976119,258.194328 88.0737313,259.996119 L177.547164,325.009254 L267.020597,259.996119 C269.496716,258.194328 270.547164,255.006269 269.609552,252.117313" id="Fill-6" fill="#FC6D26"></path>
                    <polygon id="Fill-8" fill="#E24329" points="177.571881 324.97209 177.571881 324.97209 211.598149 220.266716 143.545612 220.266716"></polygon>
                    <polygon id="Fill-10" fill="#FC6D26" points="177.546896 324.97209 143.520627 220.266716 95.8761493 220.266716"></polygon>
                    <path d="M95.860209,220.484597 L85.5052836,252.297134 C84.5676716,255.18609 85.5805075,258.37594 88.0566269,260.17594 L177.530955,325.18997 L95.860209,220.484597 Z" id="Fill-12" fill="#FCA326"></path>
                    <path d="M95.8724776,220.266806 L143.554567,220.266806 L123.033672,157.204119 C121.983224,153.977552 117.406209,153.977552 116.318149,157.204119 L95.8724776,220.266806 Z" id="Fill-14" fill="#E24329"></path>
                    <polygon id="Fill-16" fill="#FC6D26" points="177.571881 324.97209 211.598149 220.266716 259.280239 220.266716"></polygon>
                    <path d="M259.245851,220.484597 L269.599881,252.297134 C270.537493,255.18609 269.525552,258.37594 267.048537,260.17594 L177.575104,325.152358 L259.245851,220.484597 Z" id="Fill-18" fill="#FCA326"></path>
                    <path d="M259.270746,220.266806 L211.588657,220.266806 L232.07194,157.204119 C233.122388,153.977552 237.699403,153.977552 238.787463,157.204119 L259.270746,220.266806 Z" id="Fill-20" fill="#E24329"></path>
                    <polyline id="Stroke-22" stroke="#555593" stroke-width="6" stroke-linecap="round" stroke-linejoin="round" points="150.018806 210.344328 162.349254 210.344328 162.349254 177.029104 139.198209 177.029104"></polyline>
                    <polyline id="Stroke-24" stroke="#555593" stroke-width="6" stroke-linecap="round" stroke-linejoin="round" points="100.158985 177.029015 44.7028657 177.029015 44.7028657 0.720358209 0.0673432836 0.720358209 0.0673432836 218.795284 86.6151045 218.795284"></polyline>
                    <polyline id="Stroke-26" stroke="#555593" stroke-width="6" stroke-linecap="round" stroke-linejoin="round" points="268.487015 218.794925 355.105522 218.794925 355.105522 177.028657 297.716866 177.028657 297.716866 41.8486567 351.597761 41.8486567 351.597761 0.72 198.882537 0.72 198.882537 41.8486567 253.082239 41.8486567 253.082239 171.345672"></polyline>
                    <polyline id="Stroke-28" stroke="#555593" stroke-width="6" stroke-linecap="round" stroke-linejoin="round" points="215.878657 177.029015 195.693582 177.029015 195.693582 210.344239 205.05806 210.344239"></polyline>
                    <polyline id="Stroke-30" stroke="#555593" stroke-width="6" stroke-linecap="round" stroke-linejoin="round" points="134.865761 304.105701 134.865761 315.547791 90.5499403 428.092567 89.2747164 428.092567 44.639194 315.547791 44.639194 261.029284 0.00367164179 261.029284 0.00367164179 321.606 65.6812836 479.104209 114.142478 479.104209 174.967254 333.244209"></polyline>
                    <polyline id="Stroke-32" stroke="#555593" stroke-width="6" stroke-linecap="round" stroke-linejoin="round" points="202.772418 316.776806 202.772418 479.104567 354.85003 479.104567 354.85003 437.338299 247.725851 437.338299 247.725851 387.602776 335.083164 387.602776 335.083164 347.111731 247.725851 347.111731 247.725851 302.158299 354.85003 302.158299 354.85003 261.029642 276.901075 261.029642"></polyline>
                </g>
            </g>
        </g>
    </g>
</svg>
